{
  "images" : [
    {
      "idiom" : "universal",
      "filename" : "WhatsApp Image 2019-12-14 at 2.49.23 AM.jpeg",
      "scale" : "1x"
    },
    {
      "idiom" : "universal",
      "filename" : "WhatsApp Image 2019-12-14 at 2.49.23 AM-1.jpeg",
      "scale" : "2x"
    },
    {
      "idiom" : "universal",
      "filename" : "WhatsApp Image 2019-12-14 at 2.49.23 AM-2.jpeg",
      "scale" : "3x"
    }
  ],
  "info" : {
    "version" : 1,
    "author" : "xcode"
  }
}